Name,Team,Sex,WeightClassKg,Division,BodyweightKg,Squat1Kg,Squat2Kg,Squat3Kg,Best3SquatKg,Bench1Kg,Bench2Kg,Bench3Kg,Best3BenchKg,Deadlift1Kg,Deadlift2Kg,Deadlift3Kg,Best3DeadliftKg,TotalKg,Event,Equipment,Place
Alberto Carrillo,Mounstros Gym,M,56,Open,55.2,140,-150,-150,140,80,95,-102.5,95,150,170,-180,170,405,SBD,Single-ply,1
Manuel Alejandro Romo,Sonora Uvm,M,56,Open,55.9,120,-130,-130,120,110,120,-125,120,120,-130,135,135,375,SBD,Single-ply,2
Juan Manuel Carrizales,Sonora Uvm,M,56,Open,55.5,100,-105,-105,100,-87,87,-90,87,120,135,145,145,332,SBD,Single-ply,3
Beatriz Vazquez,Unam,F,56,Open,54.6,140,-150,150,150,-80,-80,80,80,-135,145,-152.5,145,375,SBD,Single-ply,1
Wilhem Guido Vilalta,Asturiano D.F,M,60,Open,59.7,185,195,200,200,130,-135,-135,130,205,215,-220,215,545,SBD,Single-ply,1
Ricardo Melgoza,Ymca,M,67.5,Open,64.4,125,-135,-135,125,95,102.5,-107.5,102.5,145,155,-162.5,155,382.5,SBD,Single-ply,1
Penelope Villegas,Bufalo,F,67.5,Open,65.3,130,-142.5,142.5,142.5,70,75,-80,75,130,140,150,150,367.5,SBD,Single-ply,1
Ricardo Vicenteño,Issac Krauss,M,75,Open,72.9,200,-220,225,225,110,125,130,130,240,-260,260,260,615,SBD,Single-ply,1
David Salgado,Sfovdra Gym,M,75,Open,71.8,185,200,-210,200,137.5,-142.5,-142.5,137.5,175,185,-195,185,522.5,SBD,Single-ply,2
Daniel Fierro,Mounstros Gym,M,75,Juniors,71.9,175,185,-190,185,100,110,-117.5,110,175,185,200,200,495,SBD,Single-ply,1
Marcelo Rivas,Enes Gym,M,75,Juniors,73.6,-150,155,-165,155,110,120,125,125,180,190,-195,190,470,SBD,Single-ply,3
Eduardo Lopez,Sfovdra Gym,M,75,Juniors,72,152.5,157.5,-165,157.5,92.5,97.5,100,100,150,165,-180,165,422.5,SBD,Single-ply,5
Carlos Alberto Duran,Corpus,M,75,Open,74.9,,,,,-135,-135,-135,,,,,,,B,Single-ply,DQ
Erick Estrada,Mounstros Gym,M,82.5,Open,78,230,240,250,250,135,145,152.5,152.5,210,225,235,235,637.5,SBD,Single-ply,1
Martín Talamantes,Ateneas,M,82.5,Open,80.2,195,205,-215,205,130,140,145,145,220,230,240,240,590,SBD,Single-ply,2
Eric Gutierrez,Bufalo,M,82.5,Juniors,80.6,-190,190,-210,190,130,-137.5,-137.5,130,200,212.5,220,220,540,SBD,Single-ply,1
Ricardo Carrillo,Club San Isidro,M,82.5,Juniors,82.3,-135,-135,135,135,-105,105,-110,105,170,190,205,205,445,SBD,Single-ply,3
David Emmanuel Munoz,Club San Isidro,M,82.5,Open,82.1,-230,-230,-230,,125,-135,-140,125,215,-225,-225,215,,SBD,Single-ply,DQ
Mario Alberto Sanchez,Corpus,M,82.5,Juniors,78.7,,,,,140,-150,162.5,162.5,,,,,162.5,B,Single-ply,1
Saul Gonzalez Garcia,Olimpya,M,82.5,Juniors,76.7,,,,,140,-150,-155,140,,,,,140,B,Single-ply,3
Jorge Armando Laurean,Laib,M,82.5,Open,81.7,150,-170,-175,150,-145,145,-150,145,-140,-140,-140,,,SBD,Single-ply,DQ
Emmanuel Gutierrez,Kaligia,M,82.5,Juniors,78.5,,,,,120,125,-132,125,,,,,125,B,Single-ply,5
Brenda Matus,Moustros Gym,F,82.5,Open,77.4,160,-170,175,175,65,75,80,80,160,180,-190,180,435,SBD,Single-ply,1
Gabriel García,Unam,M,90,Open,87.3,-275,275,290,290,190,200,210,210,265,285,-300,285,785,SBD,Single-ply,1
Oscar Ojeda,Sonora Cesues,M,90,Juniors,87,270,-290,-290,270,-160,160,-180,160,260,280,290,290,720,SBD,Single-ply,1
Manuel Lucero,Mounstros Gym,M,90,Open,84.5,240,-250,252.5,252.5,150,-160,-160,150,230,250,265,265,667.5,SBD,Single-ply,2
Luis Alarcon,Bufalo,M,90,Juniors,83.6,195,210,-217.5,210,-140,145,-155,145,210,225,235,235,590,SBD,Single-ply,3
Adolfo Roman,Muscle Factory,M,90,Open,89.7,-220,-220,220,220,140,-150,150,150,215,220,,220,590,SBD,Single-ply,3
Adolfo Moreno,Ateneas,M,90,Masters I,83.7,190,200,210,210,120,130,-140,130,220,230,240,240,580,SBD,Single-ply,1
Jovan Urrutia,Ymca,M,90,Juniors,87.9,140,150,165,165,115,120,-125,120,140,155,165,165,450,SBD,Single-ply,5
Javier Soto,Uach,M,90,Masters I,87.1,,,,,140,-160,160,160,,,,,160,B,Single-ply,1
Sixto Solis,Muscle,M,100,Open,96.9,275,285,295,295,160,170,180,180,265,275,290,290,765,SBD,Single-ply,1
Francisco Ayala,Muscle,M,100,Juniors,98.3,260,-275,-275,260,-160,160,-180,160,260,280,282.5,282.5,702.5,SBD,Single-ply,1
Enrique Rodríguez #2,Sfovdra,M,100,Open,94,235,245,265,265,-177.5,-177.5,177.5,177.5,250,-270,-270,250,692.5,SBD,Single-ply,2
Juan Pantoja,Casablanca,M,100,Open,95.5,-250,250,-260,250,-170,180,-185,180,220,230,-235,230,660,SBD,Single-ply,3
Bonaice,Unam,M,100,Juniors,92.9,190,202.5,-220,202.5,-145,145,150,150,170,182.5,200,200,552.5,SBD,Single-ply,3
Ismael Flores,Atenas,M,100,Masters I,95.5,140,150,165,165,100,110,120,120,160,170,180,180,465,SBD,Single-ply,1
Victor Manuel Gutierrez,Corpus Gym,M,100,Open,90.3,,,,,-160,160,165,165,,,,,165,B,Single-ply,1
Marco Porras,Boston,M,110,Open,106.3,-290,290,310,310,200,-210,-210,200,250,265,275,275,785,SBD,Single-ply,1
Carlos Matus,Mounstros,M,110,Open,109.7,270,290,305,305,170,-180,185,185,245,265,280,280,770,SBD,Single-ply,2
Daniel Flores,Buffalo,M,110,Open,108.4,230,240,250,250,-140,140,-160,140,230,250,-270,250,640,SBD,Single-ply,3
Rafael German,Sec Sonora,M,110,Open,102.7,200,-220,220,220,140,-150,150,150,-160,160,180,180,550,SBD,Single-ply,4
Hugo Orantes,,M,110,Open,100.1,-180,-185,-185,,180,195,210,210,,,,,,SBD,Single-ply,DQ
Martin Bonilla,Alcatraz,M,125,Open,117.4,285,300,-310,300,155,-157.5,-185,155,280,315,-340,315,770,SBD,Single-ply,1
Rubén Hernández #2,Uach,M,125,Masters I,117.9,230,250,-260,250,-160,160,180,180,240,250,-260,250,680,SBD,Single-ply,1
Francisco Flores,Atenas,M,125,Open,115.5,160,170,185,185,150,-160,160,160,180,195,210,210,555,SBD,Single-ply,2
Victor Cardona,San Isidro,M,125+,Masters I,131.9,-230,230,-250,230,130,140,150,150,220,230,-240,230,610,SBD,Single-ply,1
Carlos Sáenz,Sfovdra,M,125+,Open,130.9,150,160,170,170,125,-132,132,132,150,175,180,180,482,SBD,Single-ply,1
Adolfo Moreno,Ateneas,M,90,Masters I,83.7,190,200,210,210,120,130,-140,130,220,230,240,240,580,SBD,Single-ply,2
Javier Soto,Uach,M,90,Masters I,87.1,,,,,140,-160,160,160,,,,,160,B,Single-ply,2
Ismael Flores,Atenas,M,100,Masters I,95.5,140,150,165,165,100,110,120,120,160,170,180,180,465,SBD,Single-ply,2
Isacc Torres,Ymca,M,100,Masters II,99.3,,,,,140,145,147.5,147.5,,,,,147.5,B,Single-ply,1
Rubén Hernández #2,Uach,M,125,Masters I,117.9,230,250,-260,250,-160,160,180,180,240,250,-260,250,680,SBD,Single-ply,2
Fernando Torres,Enes Gym,M,52,Juniors,48.9,90,95,-105,95,60,65,-70,65,100,110,125,125,285,SBD,Single-ply,2
Jesus Manuel Arroyo,Ateneas,M,52,Juniors,51,75,85,95,95,60,-65,65,65,110,125,135,135,295,SBD,Single-ply,1
Edgar Sotomayor,Sonora Uvm,M,52,Juniors,50.8,-70,70,-75,70,75,-80,-80,75,100,-120,120,120,265,SBD,Single-ply,3
Brenda Hernandez,Moustros Gym,F,60,Juniors,59.8,100,-110,110,110,30,40,-47.5,40,100,110,120,120,270,SBD,Single-ply,1
Daniel Fierro,Mounstros Gym,M,75,Juniors,71.9,175,185,-190,185,100,110,-117.5,110,175,185,200,200,495,SBD,Single-ply,2
Marcelo Rivas,Enes Gym,M,75,Juniors,73.6,-150,155,-165,155,110,120,125,125,180,190,-195,190,470,SBD,Single-ply,4
Eduardo Lopez,Sfovdra Gym,M,75,Juniors,72,152.5,157.5,-165,157.5,92.5,97.5,100,100,150,165,-180,165,422.5,SBD,Single-ply,6
Eric Gutierrez,Bufalo,M,82.5,Juniors,80.6,-190,190,-210,190,130,-137.5,-137.5,130,200,212.5,220,220,540,SBD,Single-ply,2
Ricardo Carrillo,Club San Isidro,M,82.5,Juniors,82.3,-135,-135,135,135,-105,105,-110,105,170,190,205,205,445,SBD,Single-ply,4
Mario Alberto Sanchez,Corpus,M,82.5,Juniors,78.7,,,,,140,-150,162.5,162.5,,,,,162.5,B,Single-ply,2
Saul Gonzalez Garcia,Olimpya,M,82.5,Juniors,76.7,,,,,140,-150,-155,140,,,,,140,B,Single-ply,4
Emmanuel Gutierrez,Kaligia,M,82.5,Juniors,78.5,,,,,120,125,-132,125,,,,,125,B,Single-ply,6
Oscar Ojeda,Sonora Cesues,M,90,Juniors,87,270,-290,-290,270,-160,160,-180,160,260,280,290,290,720,SBD,Single-ply,2
Luis Alarcon,Bufalo,M,90,Juniors,83.6,195,210,-217.5,210,-140,145,-155,145,210,225,235,235,590,SBD,Single-ply,4
Jovan Urrutia,Ymca,M,90,Juniors,87.9,140,150,165,165,115,120,-125,120,140,155,165,165,450,SBD,Single-ply,6
Ivone Busani,Sonora Cesues,F,90,Juniors,88.4,150,170,-180,170,50,60,65,65,130,150,-155,150,385,SBD,Single-ply,1
Francisco Ayala,Muscle,M,100,Juniors,98.3,260,-275,-275,260,-160,160,-180,160,260,280,282.5,282.5,702.5,SBD,Single-ply,2
Bonaice,Unam,M,100,Juniors,92.9,190,202.5,-220,202.5,-145,145,150,150,170,182.5,200,200,552.5,SBD,Single-ply,4
