Division,WeightClassKg,Place,Name,Team,BodyweightKg,Best3SquatKg,Best3BenchKg,Best3DeadliftKg,TotalKg,Equipment,Event,Sex
Boys,51.71,1,Lance Stoker,Marshall,48.53,99.79,,138.35,238.14,Single-ply,SD,M
Boys,55.79,1,Camron King,Marshall,55.79,156.49,49.9,131.54,337.93,Single-ply,SBD,M
Boys,55.79,2,Aaron Johnson,Jefferson,52.16,104.33,68.04,124.74,297.1,Single-ply,SBD,M
Boys,59.87,1,Justin Johnson,Waskom,58.06,127.01,86.18,136.08,349.27,Single-ply,SBD,M
Boys,59.87,2,I'Sean McDaniel,Waskom,58.06,131.54,72.57,136.08,340.19,Single-ply,SBD,M
Boys,59.87,3,Caleb Bush,Elysian Fields,56.47,115.67,70.31,124.74,310.71,Single-ply,SBD,M
Boys,67.13,1,Bryce Wilkerson,Tyler Lee,62.6,181.44,83.91,181.44,446.79,Single-ply,SBD,M
Boys,67.13,2,Edgar Simmons,Marshall,64.41,172.37,108.86,163.29,444.52,Single-ply,SBD,M
Boys,67.13,3,Javonte Parker,Marshall,61.69,165.56,88.45,179.17,433.18,Single-ply,SBD,M
Boys,67.13,4,Alex Pierson,Longview,63.05,142.88,74.84,188.24,405.97,Single-ply,SBD,M
Boys,67.13,5,Laurent Johnson,Longview,64.41,147.42,83.91,174.63,405.97,Single-ply,SBD,M
Boys,67.13,6,Justin Spurlin,Waskom,63.87,142.88,83.91,158.76,385.55,Single-ply,SBD,M
Boys,67.13,7,Patrick Crowder,Tyler Lee,66.22,124.74,74.84,151.95,351.53,Single-ply,SBD,M
Boys,67.13,8,Chavis Mills,Marshall,65.77,108.86,79.38,145.15,333.39,Single-ply,SBD,M
Boys,74.84,9,Taylor Lang,Elysian Fields,67.22,120.2,68.04,138.35,326.59,Single-ply,SBD,M
Boys,67.13,10,Cullum Ditmore,Elysian Fields,65.32,90.72,54.43,124.74,269.89,Single-ply,SBD,M
Boys,67.13,11,Dylan Hudson,Waskom,65.32,99.79,72.57,,172.37,Single-ply,SB,M
Boys,74.84,1,Jalen Johnson,Longview,74.39,210.92,117.93,208.65,537.51,Single-ply,SBD,M
Boys,74.84,2,Jacovin Coats,Marshall,72.57,204.12,102.06,226.8,532.97,Single-ply,SBD,M
Boys,74.84,3,Deonte Wall,Longview,72.57,197.31,120.2,204.12,521.63,Single-ply,SBD,M
Boys,74.84,4,Nolan Allen,Marshall,74.39,213.19,106.59,192.78,512.56,Single-ply,SBD,M
Boys,74.84,5,Diondre Allen,Tyler Lee,70.31,181.44,95.25,183.7,460.4,Single-ply,SBD,M
Boys,74.84,6,JC Garcia,Waskom,72.21,181.44,95.25,174.63,451.32,Single-ply,SBD,M
Boys,74.84,7,Zhywell Bowie,Jefferson,73.57,158.76,113.4,170.1,442.25,Single-ply,SBD,M
Boys,74.84,8,Jalon Mitchell,Marshall,74.84,158.76,97.52,181.44,437.72,Single-ply,SBD,M
Boys,74.84,9,Brody Price,Jefferson,73.48,142.88,108.86,142.88,394.63,Single-ply,SBD,M
Boys,74.84,10,Deunta Johnson,Marshall,70.76,147.42,81.65,156.49,385.55,Single-ply,SBD,M
Boys,74.84,11,Micahh Smith,Marshall,69.85,151.95,63.5,149.69,365.14,Single-ply,SBD,M
Boys,74.84,12,Trace Carter,Waskom,72.57,127.01,88.45,147.42,362.87,Single-ply,SBD,M
Boys,82.1,1,Clay Layman,Longview,79.83,188.24,102.06,231.33,521.63,Single-ply,SBD,M
Boys,82.1,2,Travian Jones,Longview,81.65,206.38,108.86,199.58,514.83,Single-ply,SBD,M
Boys,82.1,3,Barney Harris,Tyler Lee,80.83,165.56,102.06,204.12,471.74,Single-ply,SBD,M
Boys,82.1,4,Jacob Hanson,Marshall,81.19,158.76,108.86,179.17,446.79,Single-ply,SBD,M
Boys,82.1,5,Paulo Cagol,Marshall,76.66,149.69,108.86,158.76,417.3,Single-ply,SBD,M
Boys,82.1,6,Tony Ratcliff,Marshall,82.1,136.08,95.25,185.97,417.3,Single-ply,SBD,M
Boys,82.1,7,Drake Murry,Marshall,77.56,163.29,72.57,179.17,415.04,Single-ply,SBD,M
Boys,82.1,8,Roddrick Gaines,Tyler Lee,80.83,147.42,79.38,181.44,408.23,Single-ply,SBD,M
Boys,82.1,9,Cordell Archield,Marshall,77.56,129.27,81.65,185.97,396.89,Single-ply,SBD,M
Boys,89.81,1,Omar French,Longview,88,190.51,102.06,231.33,523.9,Single-ply,SBD,M
Boys,89.81,2,Alberto Balderas,Marshall,89.81,195.04,124.74,192.78,512.56,Single-ply,SBD,M
Boys,89.81,3,Colby Simmons,Elysian Fields,87.54,183.7,129.27,195.04,508.02,Single-ply,SBD,M
Boys,89.81,4,John Lumpkin,Waskom,84.82,170.1,88.45,176.9,435.45,Single-ply,SBD,M
Boys,89.81,5,Reese Matthews,Elysian Fields,88.04,136.08,90.72,142.88,369.68,Single-ply,SBD,M
Boys,89.81,6,Luke Rice,Elysian Fields,88.36,83.91,68.04,142.88,294.84,Single-ply,SBD,M
Boys,99.79,1,Antonio Washington,Marshall,99.34,192.78,99.79,204.12,496.68,Single-ply,SBD,M
Boys,99.79,2,Jeremy Powell,Longview,92.53,183.7,92.99,208.65,485.34,Single-ply,SBD,M
Boys,99.79,3,Alexis Silva,Marshall,97.07,183.7,102.06,170.1,455.86,Single-ply,SBD,M
Boys,99.79,4,Kevin Moorehead,Marshall,91.17,161.03,81.65,181.44,424.11,Single-ply,SBD,M
Boys,109.77,1,Mark Malone,Longview,108.41,215.46,120.2,249.48,585.13,Single-ply,SBD,M
Boys,109.77,2,Etim Asangansi,Tyler Lee,102.51,215.46,122.47,208.65,546.58,Single-ply,SBD,M
Boys,109.77,3,Matt Norris,Waskom,107.05,161.03,104.33,163.29,428.64,Single-ply,SBD,M
Boys,109.77,4,Brandon Galindo,Elysian Fields,102.51,149.69,97.52,147.42,394.63,Single-ply,SBD,M
Boys,124.74,1,Terry Jones,Elysian Fields,114.76,272.16,165.56,226.8,664.51,Single-ply,SBD,M
Boys,124.74,2,Kenny Andrews,Longview,115.67,206.38,161.03,206.38,573.79,Single-ply,SBD,M
Boys,124.74,3,Landry Pepper,Longview,116.48,192.78,142.88,204.12,539.77,Single-ply,SBD,M
Boys,124.74,4,Tony Clark,Longview,124.74,215.46,99.79,215.46,530.7,Single-ply,SBD,M
Boys,124.74,5,Triston Taylor,Tyler Lee,114.76,204.12,115.67,204.12,523.9,Single-ply,SBD,M
Boys,124.74,6,Katrail Flanagan,Marshall,114.76,208.65,115.67,181.44,505.76,Single-ply,SBD,M
Boys,124.74,7,Ivan Monzon,Marshall,120.2,172.37,113.4,172.37,458.13,Single-ply,SBD,M
Boys,124.74+,1,Dacota Brooks,Marshall,138.35,224.53,136.08,188.24,548.85,Single-ply,SBD,M
Boys,124.74+,2,Justin Willoughby,Tyler Lee,127.01,172.37,90.72,181.44,444.52,Single-ply,SBD,M
Boys,124.74+,3,Brandon Barber,Elysian Fields,164.2,183.7,99.79,156.49,439.98,Single-ply,SBD,M
Boys,124.74+,4,Cedric Jones,Marshall,141.52,170.1,106.59,151.95,428.64,Single-ply,SBD,M
Boys,124.74+,5,Hunter Coleman,Elysian Fields,146.51,124.74,124.74,174.63,424.11,Single-ply,SBD,M
Boys,124.74+,6,Ryan Cox,Jefferson,133.81,,102.06,142.88,244.94,Single-ply,BD,M
