Place,Name,Sex,Event,Division,WeightClassKg,Equipment,BirthYear,State,BodyweightKg,Squat1Kg,Squat2Kg,Squat3Kg,Best3SquatKg,Bench1Kg,Bench2Kg,Bench3Kg,Best3BenchKg,Deadlift1Kg,Deadlift2Kg,Deadlift3Kg,Best3DeadliftKg,TotalKg,BirthDate
1,Jennie Faucheaux,F,B,FR-O,57,Raw,1980,LA,56.1,,,,,90,92.5,-95,92.5,,,,,92.5,
DQ,Miranda Shadburn,F,B,FR-O,57,Raw,1985,LA,54.1,,,,,-82.5,-82.5,,,,,,,,
DQ,Zachary Volquardts,M,B,MR-Jr,83,Raw,1995,LA,79,,,,,-90,-90,-90,,,,,,,
1,Chad Parker,M,B,MR-M1a,105,Raw,1976,LA,102.8,,,,,185,200,-210,200,,,,,200,1976-02-14
1,Hannah Bryan,F,SBD,FR-Jr,72,Raw,1996,OK,70.7,120,125,130,130,-95,95,97.5,97.5,130,137.5,145,145,372.5,
2,Savanna Fielder,F,SBD,FR-Jr,72,Raw,1995,FL,65,-90,100,107.5,107.5,60,62.5,65,65,102.5,112.5,122.5,122.5,295,
1,Batini Brown,F,SBD,FR-M1a,84+,Raw,1976,LA,108.6,72.5,-82.5,-87.5,72.5,45,50,55,55,90,100,107.5,107.5,235,
1,Sarah Vitug,F,SBD,FR-O,57,Raw,1990,LA,55.4,-95,105,112.5,112.5,55,-60,-60,55,115,-132.5,140,140,307.5,
2,Emily Schneller,F,SBD,FR-O,57,Raw,1985,LA,54.5,100,105,110,110,47.5,-52.5,-52.5,47.5,130,140,-142.5,140,297.5,
3,Chelsea Lonero,F,SBD,FR-O,57,Raw,1991,LA,55.4,90,-92.5,-92.5,90,-55,55,-57.5,55,107.5,-110,110,110,255,
1,Kristin Kavanaugh,F,SBD,FR-O,63,Raw,1989,LA,62.2,85,100,102.5,102.5,60,62.5,67.5,67.5,125,132.5,140,140,310,
2,Sarah Waldmann,F,SBD,FR-O,63,Raw,1990,LA,60.9,100,105,107.5,107.5,57.5,62.5,-65,62.5,117.5,130,137.5,137.5,307.5,
3,Katherine Smith Sotolongo,F,SBD,FR-O,63,Raw,1987,LA,61.8,82.5,90,97.5,97.5,47.5,-55,-55,47.5,137.5,147.5,-152.5,147.5,292.5,
1,Whitney Hunter,F,SBD,FR-O,72,Raw,1986,LA,71,97.5,-102.5,-107.5,97.5,50,52.5,-67.5,52.5,112.5,120,127.5,127.5,277.5,
1,Lydia Riggs,F,SBD,FR-O,84,Raw,1993,NC,78.4,92.5,97.5,100,100,57.5,60,-62.5,60,115,117.5,122.5,122.5,282.5,
2,Krystal Fontenot,F,SBD,FR-O,84,Raw,1989,LA,80.8,100,-110,-110,100,42.5,-50,-50,42.5,105,112.5,120,120,262.5,
1,Alex Jackson,F,SBD,FR-O,84+,Raw,1991,LA,93.6,192.5,200,,200,105,112.5,-115,112.5,192.5,202.5,-205,202.5,515,
DQ,Laura Owen,F,SBD,FR-O,84+,Raw,1983,LA,87.7,85,92.5,100,100,-45,-47.5,-47.5,,120,130,-137.5,130,,
1,Ted Longo,M,SBD,M-M2b,93,Single-ply,1963,MS,87,-182.5,-182.5,192.5,192.5,92.5,102.5,107.5,107.5,182.5,192.5,200,200,500,
1,Shawn Madere,M,SBD,MR-Jr,83,Raw,1997,LA,80.9,150,165,185,185,115,127.5,-137.5,127.5,165,185,195,195,507.5,
DQ,Umer Iqbal,M,SBD,MR-Jr,93,Raw,1997,LA,92.9,-185,-185,-185,,110,,,110,125,182.5,-275,182.5,,
1,Ross Nichols,M,SBD,MR-M2a,83,Raw,1966,LA,81.5,115,120,125,125,97.5,100,-102.5,100,135,142.5,150,150,375,
1,Lorne Caughlin,M,SBD,MR-M3a,105,Raw,1957,LA,94.7,-135,135,145,145,102.5,105,-110,105,145,155,162.5,162.5,412.5,
1,Paul Remedios,M,SBD,MR-O,59,Raw,1986,LA,59,142.5,-147.5,,142.5,102.5,-115,115,115,185,192.5,202.5,202.5,460,
1,Josef Morrow,M,SBD,MR-O,66,Raw,1982,MS,63,190,-205,-205,190,125,132.5,137.5,137.5,235,252.5,257.5,257.5,585,
1,Alex Cameron,M,SBD,MR-O,83,Raw,1994,LA,81.3,182.5,192.5,210,210,130,-142.5,-142.5,130,187.5,197.5,212.5,212.5,552.5,
2,Brandon Hellbach,M,SBD,MR-O,83,Raw,1993,LA,81.6,172.5,185,192.5,192.5,122.5,130,-137.5,130,185,195,-205,195,517.5,
DQ,Brad Scott,M,SBD,MR-O,83,Raw,1980,LA,80.9,-185,-195,-195,,72.5,127.5,-137.5,127.5,205,220,227.5,227.5,,
DQ,Marcus Pierre,M,SBD,MR-O,83,Raw,1991,LA,82.3,-225,-227.5,-227.5,,-170,-170,-170,,275,282.5,290,290,,
1,Kevin Kern,M,SBD,MR-O,93,Raw,1979,LA,88.3,217.5,227.5,-235,227.5,115,122.5,-130,122.5,-230,230,237.5,237.5,587.5,
2,Kevin Nguyen #2,M,SBD,MR-O,93,Raw,1994,LA,88.1,170,-182.5,187.5,187.5,125,132.5,-142.5,132.5,190,205,212.5,212.5,532.5,
3,Seth Duhon,M,SBD,MR-O,93,Raw,1990,LA,90,185,200,-207.5,200,125,-132.5,-132.5,125,185,200,207.5,207.5,532.5,
1,Jeremy Jallans,M,SBD,MR-O,105,Raw,1981,LA,101.4,190,197.5,205,205,142.5,-152.5,152.5,152.5,202.5,212.5,227.5,227.5,585,
2,David White,M,SBD,MR-O,105,Raw,1983,LA,104.3,170,185,190,190,120,130,132.5,132.5,192.5,195,205,205,527.5,
1,Phillip Richard,M,SBD,MR-O,120,Raw,1990,LA,116.4,270,280,-287.5,280,185,-197.5,-197.5,185,230,250,-272.5,250,715,
2,Jonathan Bertrand,M,SBD,MR-O,120,Raw,1983,LA,118.3,217.5,232.5,240,240,165,170,-177.5,170,235,257.5,-272.5,257.5,667.5,
1,Tobias Nichols,M,SBD,MR-T2,59,Raw,2001,LA,56.4,42.5,-50,60,60,37.5,42.5,-57.5,42.5,62.5,65,77.5,77.5,180,
1,Rodger Cox,M,SBD,MR-T2,105,Raw,2001,LA,97.5,160,167.5,172.5,172.5,115,120,125,125,197.5,-212.5,215,215,512.5,
DQ,Kal-El Jones,M,SBD,MR-Y1,35,Raw,2008,LA,30.1,30,32.5,35,35,-27.5,-27.5,-27.5,,55,62.5,-67.5,62.5,,
