Division,WeightClassKg,Place,Name,Team,BodyweightKg,Best3SquatKg,Best3BenchKg,Best3DeadliftKg,TotalKg,Equipment,Event,Sex
Boys,51.71,1,Wylie Brown,Nacogdoches,49.35,145.15,72.57,145.15,362.87,Single-ply,SBD,M
Boys,51.71,2,Bryan Rubenaker,Garrison,50.53,95.25,58.97,120.2,274.42,Single-ply,SBD,M
Boys,51.71,3,John Magbanua,Texarkana Texas,51.62,102.06,49.9,120.2,272.16,Single-ply,SBD,M
Boys,51.71,4,Jonathan McWhorter,Lindale,45.36,81.65,36.29,83.91,201.85,Single-ply,SBD,M
Boys,55.79,1,Colton Lewis,Lindale,54.43,115.67,90.72,140.61,347,Single-ply,SBD,M
Boys,55.79,2,Chris Carey,Garrison,53.8,106.59,68.04,142.88,317.51,Single-ply,SBD,M
Boys,55.79,3,Kevin Chavez,Laird Hill Leveretts Chapel,55.79,120.2,63.5,133.81,317.51,Single-ply,SBD,M
Boys,55.79,4,Bailey Kurtz,Bullard,54.61,102.06,61.23,111.13,274.42,Single-ply,SBD,M
Boys,59.87,1,James Fisher,Texarkana Texas,56.79,136.08,74.84,131.54,342.46,Single-ply,SBD,M
Boys,59.87,2,Matt Meaker,Lindale,59.33,97.52,65.77,117.93,281.23,Single-ply,SBD,M
Boys,59.87,3,Zach Hartman,Troup,56.15,102.06,61.23,111.13,274.42,Single-ply,SBD,M
Boys,59.87,4,Ethan Robinson,Laird Hill Leveretts Chapel,56.34,77.11,43.09,106.59,226.8,Single-ply,SBD,M
Boys,59.87,DQ,Caleb Morrow,Tyler,58.06,,,,,Single-ply,SBD,M
Boys,67.13,1,Ja'Vontay Williams,Nacogdoches,66.86,231.33,95.25,231.33,557.92,Single-ply,SBD,M
Boys,67.13,2,Richard Torrelli,Bullard,65.05,136.08,99.79,174.63,410.5,Single-ply,SBD,M
Boys,67.13,3,Montana Meador,Lindale,65.23,151.95,79.38,163.29,394.63,Single-ply,SBD,M
Boys,67.13,4,Jacolby Robinson,Jacksonville,65.41,158.76,81.65,154.22,394.63,Single-ply,SBD,M
Boys,67.13,5,Matt Scruggs,Troup,66.41,145.15,99.79,149.69,394.63,Single-ply,SBD,M
Boys,67.13,6,Tyrec Grayson,Tyler Lee,63.68,136.08,74.84,165.56,376.48,Single-ply,SBD,M
Boys,67.13,7,Mike Zuniga,Troup,65.59,136.08,77.11,142.88,356.07,Single-ply,SBD,M
Boys,67.13,8,Lane Smith,Troup,61.05,122.47,68.04,140.61,331.12,Single-ply,SBD,M
Boys,74.84,1,Hayden Dees,Lindale,74.75,183.7,97.52,208.65,489.88,Single-ply,SBD,M
Boys,74.84,2,Pierce Adams,Nacogdoches,70.94,208.65,92.99,183.7,485.34,Single-ply,SBD,M
Boys,74.84,3,Toby Thatcher,Bullard,72.12,188.24,113.4,183.7,485.34,Single-ply,SBD,M
Boys,74.84,4,Brett Martin,Troup,70.76,181.44,104.33,197.31,483.08,Single-ply,SBD,M
Boys,74.84,5,Deverick Tatum,Jacksonville,72.76,156.49,92.99,226.8,476.27,Single-ply,SBD,M
Boys,74.84,6,De'Juan Beal,Tyler,71.76,183.7,113.4,170.1,467.2,Single-ply,SBD,M
Boys,74.84,7,Brysien Cross,Tyler Chapel Hill,74.84,154.22,104.33,195.04,453.59,Single-ply,SBD,M
Boys,74.84,8,JaChristopher Holman,San Augustine,68.58,170.1,97.52,181.44,449.06,Single-ply,SBD,M
Boys,74.84,9,Dante Byerly,Laird Hill Leveretts Chapel,74.48,172.37,86.18,165.56,424.11,Single-ply,SBD,M
Boys,74.84,10,Zack Cooke,New London West Rusk,74.03,165.56,97.52,156.49,419.57,Single-ply,SBD,M
Boys,74.84,11,Jordan Robinson,Lindale,70.4,158.76,81.65,158.76,399.16,Single-ply,SBD,M
Boys,74.84,12,Jackson Jones,Henderson,68.22,147.42,90.72,158.76,396.89,Single-ply,SBD,M
Boys,74.84,13,Luke Bowman,Bullard,74.12,142.88,90.72,151.95,385.55,Single-ply,SBD,M
Boys,74.84,14,Jose Cerda,New London West Rusk,71.21,142.88,79.38,158.76,381.02,Single-ply,SBD,M
Boys,74.84,15,Anthony Woods,Tyler,74.84,127.01,77.11,158.76,362.87,Single-ply,SBD,M
Boys,74.84,16,Robert Humphreys,Lindale,71.85,124.74,63.5,147.42,335.66,Single-ply,SBD,M
Boys,74.84,DQ,Tyler Pullum,Winona,72.39,172.37,,,,Single-ply,SBD,M
Boys,74.84,DQ,Javian Bluford,San Augustine,73.75,,,,,Single-ply,SBD,M
Boys,82.1,1,Michael Hansen,Lindale,78.38,215.46,131.54,213.19,560.19,Single-ply,SBD,M
Boys,82.1,2,Cer'Charvie Berry,San Augustine,78.74,210.92,120.2,226.8,557.92,Single-ply,SBD,M
Boys,82.1,3,Ryan Taylor,Lindale,77.75,210.92,120.2,208.65,539.77,Single-ply,SBD,M
Boys,82.1,4,Mitchell Butler,Texarkana Texas,81.1,183.7,120.2,219.99,523.9,Single-ply,SBD,M
Boys,82.1,5,Chris Bradford,Bullard,77.11,204.12,111.13,204.12,519.36,Single-ply,SBD,M
Boys,82.1,6,Cameron Holmes,Tyler Lee,77.02,181.44,99.79,217.72,498.95,Single-ply,SBD,M
Boys,82.1,7,Charles Suell,San Augustine,76.84,188.24,117.93,181.44,487.61,Single-ply,SBD,M
Boys,82.1,8,DeAndre Hordge,Tyler Chapel Hill,81.1,192.78,104.33,185.97,483.08,Single-ply,SBD,M
Boys,82.1,9,Julian Watkins,Texarkana Texas,81.47,167.83,108.86,199.58,476.27,Single-ply,SBD,M
Boys,82.1,10,Dedrick Tatum,Jacksonville,75.3,192.78,97.52,176.9,467.2,Single-ply,SBD,M
Boys,82.1,11,Saul Rios,Lindale,76.93,176.9,95.25,170.1,442.25,Single-ply,SBD,M
Boys,82.1,12,Ryan Spellman,Lindale,81.19,167.83,99.79,170.1,437.72,Single-ply,SBD,M
Boys,82.1,13,Zach Graham,Henderson,81.47,165.56,102.06,165.56,433.18,Single-ply,SBD,M
Boys,82.1,14,Clayton Hawley,Lindale,78.29,154.22,104.33,161.03,419.57,Single-ply,SBD,M
Boys,82.1,15,Ramiro Martinez,Troup,76.11,145.15,95.25,163.29,403.7,Single-ply,SBD,M
Boys,82.1,16,Bret Ballet,Tyler,75.66,145.15,99.79,149.69,394.63,Single-ply,SBD,M
Boys,82.1,17,Lane Jackson,Garrison,75.84,138.35,90.72,149.69,378.75,Single-ply,SBD,M
Boys,82.1,18,Chris Phillips,Troup,79.74,131.54,70.31,149.69,351.53,Single-ply,SBD,M
Boys,82.1,19,Joshua Miller,Tyler,81.92,127.01,70.31,133.81,331.12,Single-ply,SBD,M
Boys,82.1,20,Jaxson Goode,Henderson,80.92,106.59,61.23,158.76,326.59,Single-ply,SBD,M
Boys,82.1,DQ,Bradley Beall,Bullard,78.2,,,,,Single-ply,SBD,M
Boys,89.81,1,James Seekford,Lindale,85,272.16,167.83,226.8,666.78,Single-ply,SBD,M
Boys,89.81,2,Anthony Howard,New London West Rusk,88.45,231.33,142.88,244.94,619.15,Single-ply,SBD,M
Boys,89.81,3,DeCorian Horton,Tyler Chapel Hill,87.45,215.46,136.08,226.8,578.33,Single-ply,SBD,M
Boys,89.81,4,Kyle Alexander #2,Bullard,84.64,208.65,117.93,192.78,519.36,Single-ply,SBD,M
Boys,89.81,5,Ceasar Morales,Jacksonville,88,188.24,108.86,192.78,489.88,Single-ply,SBD,M
Boys,89.81,6,Jacobe Ellis,Texarkana Texas,83.91,158.76,106.59,181.44,446.79,Single-ply,SBD,M
Boys,89.81,7,Ben McFadden,Lindale,83.19,165.56,81.65,185.97,433.18,Single-ply,SBD,M
Boys,99.79,8,Jesse Head,Lindale,89.99,167.83,88.45,167.83,424.11,Single-ply,SBD,M
Boys,89.81,9,Thomas Brooks,Bullard,83.46,147.42,108.86,163.29,419.57,Single-ply,SBD,M
Boys,89.81,DQ,Chase Brewer,Laird Hill Leveretts Chapel,83.55,142.88,65.77,,,Single-ply,SBD,M
Boys,99.79,1,Delenis Garrett,Tyler Chapel Hill,97.7,263.08,163.29,217.72,644.1,Single-ply,SBD,M
Boys,99.79,2,Caleb Hallford,Bullard,98.43,215.46,165.56,206.38,587.4,Single-ply,SBD,M
Boys,99.79,3,Henry Hernandez #2,Jacksonville,97.89,197.31,108.86,208.65,514.83,Single-ply,SBD,M
Boys,99.79,4,Parker Musselwhite,Tyler Lee,92.35,208.65,92.99,208.65,510.29,Single-ply,SBD,M
Boys,99.79,5,David Mitchell,Winona,92.35,185.97,124.74,183.7,494.42,Single-ply,SBD,M
Boys,99.79,6,Wilfredo Valladares,Tyler,94.98,183.7,136.08,170.1,489.88,Single-ply,SBD,M
Boys,99.79,7,Nathan Boutin,Henderson,96.89,181.44,115.67,183.7,480.81,Single-ply,SBD,M
Boys,99.79,8,Vaughn Liedtke,New London West Rusk,90.81,176.9,108.86,181.44,467.2,Single-ply,SBD,M
Boys,99.79,9,Brandon Osteen,New London West Rusk,95.16,183.7,92.99,183.7,460.4,Single-ply,SBD,M
Boys,99.79,10,Andrew Brooks,Bullard,90.81,183.7,90.72,183.7,458.13,Single-ply,SBD,M
Boys,99.79,11,Austin Whitten,Tyler Chapel Hill,97.61,172.37,111.13,174.63,458.13,Single-ply,SBD,M
Boys,99.79,12,Flavio Hernandez,Jacksonville,95.62,167.83,113.4,174.63,455.86,Single-ply,SBD,M
Boys,99.79,13,Jacob DeHart,Lindale,94.53,156.49,97.52,181.44,435.45,Single-ply,SBD,M
Boys,99.79,14,Cooper Knauss,Bullard,94.8,147.42,95.25,158.76,401.43,Single-ply,SBD,M
Boys,99.79,15,Brett Howe,New London West Rusk,91.44,151.95,79.38,147.42,378.75,Single-ply,SBD,M
Boys,99.79,DQ,Alex Durmon,Troup,95.53,127.01,,,,Single-ply,SBD,M
Boys,109.77,1,Hunter Phelps,Bullard,103.96,260.82,174.63,233.6,669.05,Single-ply,SBD,M
Boys,109.77,2,Tyler Segrest,Lindale,106.96,240.4,142.88,251.74,635.03,Single-ply,SBD,M
Boys,109.77,3,Jassavia Reese,Tyler,108.23,233.6,122.47,263.08,619.15,Single-ply,SBD,M
Boys,109.77,4,Jaylon Reese,Tyler,109.68,210.92,142.88,242.67,596.47,Single-ply,SBD,M
Boys,109.77,5,Andrew Dawson,Tyler Chapel Hill,109.23,222.26,129.27,208.65,560.19,Single-ply,SBD,M
Boys,109.77,6,Reese Clark,Troup,105.51,242.67,111.13,204.12,557.92,Single-ply,SBD,M
Boys,109.77,7,DeCorian Blaylock,Tyler,105.23,213.19,124.74,213.19,551.11,Single-ply,SBD,M
Boys,109.77,8,Y Rushing,San Augustine,100.61,204.12,129.27,204.12,537.51,Single-ply,SBD,M
Boys,109.77,9,Xavion Gardner,Tyler Lee,105.96,201.85,106.59,219.99,528.44,Single-ply,SBD,M
Boys,109.77,10,Matthew Davidson,New London West Rusk,100.61,204.12,92.99,188.24,485.34,Single-ply,SBD,M
Boys,109.77,11,Nicholas Ballard,New London West Rusk,103.69,192.78,97.52,181.44,471.74,Single-ply,SBD,M
Boys,109.77,12,Cole Brewton,Nacogdoches,102.06,185.97,111.13,165.56,462.66,Single-ply,SBD,M
Boys,109.77,13,Santos Perez,Tyler Lee,107.68,172.37,92.99,174.63,439.98,Single-ply,SBD,M
Boys,109.77,14,Emmitt Eckler,Jacksonville,103.51,142.88,124.74,167.83,435.45,Single-ply,SBD,M
Boys,109.77,15,Raini Dorman,Henderson,107.95,142.88,92.99,165.56,401.43,Single-ply,SBD,M
Boys,124.74,1,Gonzalo Arreguin,Tyler Chapel Hill,113.4,272.16,192.78,247.21,712.14,Single-ply,SBD,M
Boys,124.74,2,Jake Allen,Bullard,121.2,249.48,151.95,233.6,635.03,Single-ply,SBD,M
Boys,124.74,3,Jerry Villela,Tyler Lee,116.66,226.8,142.88,260.82,630.49,Single-ply,SBD,M
Boys,124.74,4,Pierre Leonard,Tyler,112.58,249.48,136.08,233.6,619.15,Single-ply,SBD,M
Boys,124.74,5,Will Brown,Texarkana Texas,123.38,217.72,145.15,240.4,603.28,Single-ply,SBD,M
Boys,124.74,6,John Samples,Tyler Lee,113.76,226.8,147.42,226.8,601.01,Single-ply,SBD,M
Boys,124.74+,7,Matthew Davis,Texarkana Texas,124.92,226.8,133.81,215.46,576.06,Single-ply,SBD,M
Boys,124.74,8,Mitchell Graham,Bullard,111.49,208.65,142.88,197.31,548.85,Single-ply,SBD,M
Boys,124.74,9,James Murphy,Texarkana Texas,110.13,215.46,133.81,190.51,539.77,Single-ply,SBD,M
Boys,124.74,10,Clayton Breckel,Tyler Lee,119.02,199.58,124.74,208.65,532.97,Single-ply,SBD,M
Boys,124.74,11,Justin Crowe,Jacksonville,111.95,201.85,102.06,226.8,530.7,Single-ply,SBD,M
Boys,124.74,12,Cameron Fleming,Lindale,124.74,229.06,122.47,174.63,526.17,Single-ply,SBD,M
Boys,124.74,13,Sergio Cabrera,Jacksonville,112.49,210.92,111.13,192.78,514.83,Single-ply,SBD,M
Boys,124.74,14,Trenton Thomas,Henderson,117.12,210.92,117.93,183.7,512.56,Single-ply,SBD,M
Boys,124.74,15,Kerry Rivera,Nacogdoches,110.68,188.24,111.13,192.78,492.15,Single-ply,SBD,M
Boys,124.74+,16,John Campbell,Bullard,124.92,204.12,92.99,179.17,476.27,Single-ply,SBD,M
Boys,124.74,17,Adrian Harris,Tyler,124.01,176.9,115.67,174.63,467.2,Single-ply,SBD,M
Boys,124.74,18,Isiaha Burgess,Tyler,118.3,167.83,104.33,188.24,460.4,Single-ply,SBD,M
Boys,124.74,19,TreJon Blake,Tyler,120.93,183.7,99.79,167.83,451.32,Single-ply,SBD,M
Boys,124.74,20,Jose Arreguin,Tyler Chapel Hill,117.39,181.44,102.06,165.56,449.06,Single-ply,SBD,M
Boys,124.74,21,Joey Gray,Troup,114.58,181.44,99.79,149.69,430.91,Single-ply,SBD,M
Boys,124.74,22,James Hardy,Troup,116.21,181.44,90.72,149.69,421.84,Single-ply,SBD,M
Boys,124.74,23,Juan Mercado,Nacogdoches,116.12,158.76,102.06,145.15,405.97,Single-ply,SBD,M
Boys,124.74,24,Max Prior,Henderson,110.68,154.22,72.57,165.56,392.36,Single-ply,SBD,M
Boys,124.74+,1,Colby Harris,Tyler,146.96,249.48,147.42,190.51,587.4,Single-ply,SBD,M
Boys,124.74+,2,Jaren Kubena,Jacksonville,134.44,240.4,111.13,204.12,555.65,Single-ply,SBD,M
Boys,124.74+,3,Jordan Jones,Tyler Lee,148.78,219.99,104.33,213.19,537.51,Single-ply,SBD,M
Boys,124.74+,4,Matt Carr,Bullard,152.41,204.12,142.88,183.7,530.7,Single-ply,SBD,M
Boys,124.74+,5,Gradick Gaylon,Lindale,145.51,199.58,120.2,195.04,514.83,Single-ply,SBD,M
Boys,124.74+,6,Edgar Torres,Tyler,132,154.22,99.79,154.22,408.23,Single-ply,SBD,M
Boys,124.74+,DQ,Malik Clark,New London West Rusk,132.81,,,,,Single-ply,SBD,M
Boys,124.74+,DQ,Frankie Mickey,Bullard,127.82,,,,,Single-ply,SBD,M
