Division,WeightClassKg,Place,Name,Team,BodyweightKg,Best3SquatKg,Best3BenchKg,Best3DeadliftKg,TotalKg,Equipment,Event,Sex
Div 2,51.71,1,Dustin Richardson,Lake Worth,51.66,113.4,65.77,172.37,351.53,Single-ply,SBD,M
Div 2,55.79,2,Zach Ramirez,Decatur,51.94,133.81,72.57,133.81,340.19,Single-ply,SBD,M
Div 2,51.71,3,Jacob Kemp,Bonham,51.48,131.54,54.43,136.08,322.05,Single-ply,SBD,M
Div 2,55.79,4,Darius Rivera,Princeton,51.8,113.4,70.31,138.35,322.05,Single-ply,SBD,M
Div 2,51.71,5,Dillan Cromeens,Nevada Community,51.66,115.67,68.04,111.13,294.84,Single-ply,SBD,M
Div 2,51.71,6,Matthew Palmer,Bonham,49.44,99.79,65.77,122.47,288.03,Single-ply,SBD,M
Div 2,55.79,7,Brian Keksi,Burkburnett,51.89,102.06,63.5,122.47,288.03,Single-ply,SBD,M
Div 2,55.79,8,Shafiq Asmaty,Kennedale,51.8,104.33,58.97,108.86,272.16,Single-ply,SBD,M
Div 2,51.71,DQ,Daniel Sandoval,Farmersville,51.48,,,,,Single-ply,SBD,M
Div 2,55.79,DQ,Aaron Gonzales,Graham,51.89,,,,,Single-ply,SBD,M
Div 2,55.79,DQ,Cameron Calame,Graham,51.94,,,,,Single-ply,SBD,M
Div 2,55.79,1,Dillan Brown,Decatur,54.52,195.04,95.25,185.97,476.27,Single-ply,SBD,M
Div 2,55.79,2,Camron Senters,Burkburnett,55.47,163.29,90.72,176.9,430.91,Single-ply,SBD,M
Div 2,55.79,3,Nolan Newville,Decatur,53.93,158.76,92.99,165.56,417.3,Single-ply,SBD,M
Div 2,55.79,4,Ethan Brooks,Bonham,55.43,147.42,72.57,192.78,412.77,Single-ply,SBD,M
Div 2,55.79,5,Jonathan Juarez,Celina,54.93,136.08,68.04,172.37,376.48,Single-ply,SBD,M
Div 2,55.79,6,Kevin Huynh,Kennedale,54.79,136.08,61.23,163.29,360.61,Single-ply,SBD,M
Div 2,55.79,7,Will Carter,Sanger,55.66,136.08,81.65,140.61,358.34,Single-ply,SBD,M
Div 2,55.79,8,Dillon Gonzales,Graham,55.2,136.08,72.57,129.27,337.93,Single-ply,SBD,M
Div 2,55.79,DQ,Jose Rangel,Farmersville,54.84,,,,,Single-ply,SBD,M
Div 2,59.87,DQ,Kareem Williams,Carrollton Ranchview,55.97,,,,,Single-ply,SBD,M
Div 2,67.13,1,Sean Guinyard,Kennedale,59.96,195.04,104.33,195.04,494.42,Single-ply,SBD,M
Div 2,59.87,2,Alejandro Beltran,Decatur,59.78,188.24,106.59,185.97,480.81,Single-ply,SBD,M
Div 2,67.13,3,Jordan Smith,Bonham,59.92,190.51,83.91,199.58,474,Single-ply,SBD,M
Div 2,59.87,4,Brandon Hisaw,Graham,58.6,172.37,81.65,163.29,417.3,Single-ply,SBD,M
Div 2,59.87,5,Kendall Kyles,Carrollton Ranchview,59.87,147.42,90.72,170.1,408.23,Single-ply,SBD,M
Div 2,59.87,6,Fouad Ali,Kennedale,59.33,131.54,90.72,176.9,399.16,Single-ply,SBD,M
Div 2,59.87,7,Josh Wood,Iowa Park,58.2,147.42,88.45,158.76,394.63,Single-ply,SBD,M
Div 2,59.87,8,Spencer Tilley,Pilot Point,59.83,149.69,88.45,149.69,387.82,Single-ply,SBD,M
Div 2,59.87,9,Roque Rivas,Bowie,59.24,145.15,86.18,151.95,383.29,Single-ply,SBD,M
Div 2,59.87,10,Erik Ramirez,Nevada Community,59.28,142.88,86.18,147.42,376.48,Single-ply,SBD,M
Div 2,67.13,1,Chavin Scales,Whitesboro,64.77,190.51,142.88,181.44,514.83,Single-ply,SBD,M
Div 2,67.13,2,Zach Remily,Bowie,61.05,197.31,111.13,179.17,487.61,Single-ply,SBD,M
Div 2,67.13,3,Brandon Sheppard,Wichita Falls Hirschi,66.04,195.04,92.99,195.04,483.08,Single-ply,SBD,M
Div 2,67.13,4,Paul Blasingame,Nevada Community,66.32,188.24,106.59,188.24,483.08,Single-ply,SBD,M
Div 2,67.13,5,Jd Long,Gainesville,66.22,181.44,97.52,188.24,467.2,Single-ply,SBD,M
Div 2,67.13,6,Luke Hartman,Iowa Park,65.54,165.56,111.13,188.24,464.93,Single-ply,SBD,M
Div 2,67.13,7,Eric Rodriguez,Aubrey,66.9,181.44,97.52,174.63,453.59,Single-ply,SBD,M
Div 2,67.13,8,Trey Williams,Kennedale,66,167.83,99.79,174.63,442.25,Single-ply,SBD,M
Div 2,67.13,9,Rowdy Dunnam,Graham,64.91,167.83,88.45,165.56,421.84,Single-ply,SBD,M
Div 2,67.13,DQ,Collin Rodgers,Farmersville,64.73,183.7,,,,Single-ply,SBD,M
Div 2,67.13,DQ,Juan Martinez,Graham,64.14,,,,,Single-ply,SBD,M
Div 2,74.84,DQ,Nathan Markiewics,Bonham,67.31,,,,,Single-ply,SBD,M
Div 2,74.84,1,Colbey Watson,Iowa Park,74.75,226.8,122.47,213.19,562.45,Single-ply,SBD,M
Div 2,74.84,2,Dawson Hawthorne,Graham,73.39,215.46,122.47,208.65,546.58,Single-ply,SBD,M
Div 2,74.84,3,Jamal Lewis,Wichita Falls Hirschi,68.4,217.72,104.33,204.12,526.17,Single-ply,SBD,M
Div 2,74.84,4,Adrian Guay,Sanger,70.31,208.65,108.86,208.65,526.17,Single-ply,SBD,M
Div 2,74.84,5,Robert Maples,Pilot Point,74.48,204.12,102.06,217.72,523.9,Single-ply,SBD,M
Div 2,74.84,6,Daniel Fielder,Mineral Wells,74.57,185.97,124.74,208.65,519.36,Single-ply,SBD,M
Div 2,74.84,7,Marcio Velasquez,Nevada Community,74.57,190.51,133.81,190.51,514.83,Single-ply,SBD,M
Div 2,74.84,8,Will Cawley,Graham,71.99,195.04,108.86,199.58,503.49,Single-ply,SBD,M
Div 2,74.84,9,Tyler Bailey,Lucas Lovejoy,74.84,195.04,113.4,192.78,501.22,Single-ply,SBD,M
Div 2,74.84,DQ,Gabe Huerta,Bridgeport,73.03,179.17,131.54,,,Single-ply,SBD,M
Div 2,82.1,1,Zack Romine,Burkburnett,80.29,240.4,138.35,226.8,605.55,Single-ply,SBD,M
Div 2,82.1,2,Jesus Vargas,Celina,79.83,215.46,149.69,229.06,594.21,Single-ply,SBD,M
Div 2,82.1,3,Cale Gilley,Kennedale,80.2,215.46,147.42,213.19,576.06,Single-ply,SBD,M
Div 2,82.1,4,Marcus Wimby,Carrollton Ranchview,77.56,204.12,124.74,217.72,546.58,Single-ply,SBD,M
Div 2,82.1,5,Blake Haney,Decatur,79.65,199.58,122.47,213.19,535.24,Single-ply,SBD,M
Div 2,82.1,6,Cody Alexander,Bonham,80.06,215.46,117.93,199.58,532.97,Single-ply,SBD,M
Div 2,82.1,7,Bobby Byrd,Decatur,77.61,217.72,115.67,195.04,528.44,Single-ply,SBD,M
Div 2,82.1,8,Dustin Williams,Anna,79.56,210.92,124.74,185.97,521.63,Single-ply,SBD,M
Div 2,82.1,9,Dakota Barnes,Bonham,80.78,204.12,95.25,219.99,519.36,Single-ply,SBD,M
Div 2,82.1,10,Adam Strickland,Nevada Community,77.61,185.97,122.47,190.51,498.95,Single-ply,SBD,M
Div 2,82.1,DQ,Anthony Garcia,Celina,82.1,,,,,Single-ply,SBD,M
Div 2,89.81,1,Mitchell Bateman,Argyle,89.04,249.48,127.01,242.67,619.15,Single-ply,SBD,M
Div 2,89.81,2,Kenyon Morgan,Gainesville,87.27,260.82,133.81,222.26,616.89,Single-ply,SBD,M
Div 2,89.81,3,Josh Wisely,Carrollton Ranchview,89.77,256.28,145.15,213.19,614.62,Single-ply,SBD,M
Div 2,89.81,4,Zack Watson,Bridgeport,88.95,226.8,124.74,213.19,564.72,Single-ply,SBD,M
Div 2,89.81,5,Dj Fields,Bonham,88.36,240.4,127.01,195.04,562.45,Single-ply,SBD,M
Div 2,89.81,6,Shelby Long,Anna,84.59,226.8,108.86,213.19,548.85,Single-ply,SBD,M
Div 2,89.81,7,Robert Jones,Mineral Wells,85.09,219.99,129.27,185.97,535.24,Single-ply,SBD,M
Div 2,89.81,8,Damien Aparicio,Mineral Wells,89.81,195.04,127.01,204.12,526.17,Single-ply,SBD,M
Div 2,89.81,9,Omar Alonso,Prosper,88.59,204.12,124.74,192.78,521.63,Single-ply,SBD,M
Div 2,89.81,10,Cameron Litzkow,Van Alstyne,88.68,197.31,111.13,210.92,519.36,Single-ply,SBD,M
Div 2,99.79,1,Cameron Medford,Pilot Point,92.53,276.69,201.85,247.21,725.75,Single-ply,SBD,M
Div 2,99.79,2,Keith Jones,Pilot Point,98.16,251.74,174.63,231.33,657.71,Single-ply,SBD,M
Div 2,99.79,3,Brett Wade,Kennedale,93.53,249.48,133.81,244.94,628.23,Single-ply,SBD,M
Div 2,99.79,4,Tyler Tennerson,Mineral Wells,94.08,235.87,165.56,217.72,619.15,Single-ply,SBD,M
Div 2,99.79,5,Nick Conklin,Sanger,91.22,233.6,136.08,233.6,603.28,Single-ply,SBD,M
Div 2,99.79,6,Spencer Heflin,Lake Worth,94.53,226.8,138.35,238.14,603.28,Single-ply,SBD,M
Div 2,99.79,7,Taylor Davis,Princeton,98.57,217.72,145.15,224.53,587.4,Single-ply,SBD,M
Div 2,99.79,8,Kyler Koch,Iowa Park,94.62,226.8,136.08,204.12,566.99,Single-ply,SBD,M
Div 2,99.79,9,Riley Stottle,Pilot Point,98.84,208.65,140.61,210.92,560.19,Single-ply,SBD,M
Div 2,99.79,10,Chris Dimas,Lake Worth,98.93,222.26,124.74,210.92,557.92,Single-ply,SBD,M
Div 2,109.77,1,Scott Dobbins,Burkburnett,108.82,319.78,213.19,276.69,809.66,Single-ply,SBD,M
Div 2,109.77,2,Trevor Gardner,Lake Worth,106.55,233.6,149.69,231.33,614.62,Single-ply,SBD,M
Div 2,109.77,3,Hiram Muhammed,Lucas Lovejoy,108.59,226.8,136.08,249.48,612.35,Single-ply,SBD,M
Div 2,109.77,4,Sebastian Sara,Carrollton Ranchview,107.5,226.8,145.15,204.12,576.06,Single-ply,SBD,M
Div 2,109.77,5,Javier Padilla,Bonham,100.11,219.99,147.42,206.38,573.79,Single-ply,SBD,M
Div 2,109.77,6,Scott Blair,Anna,102.51,226.8,120.2,215.46,562.45,Single-ply,SBD,M
Div 2,109.77,7,Koltyn Davis,Kennedale,100.38,213.19,124.74,215.46,553.38,Single-ply,SBD,M
Div 2,109.77,DQ,Matthew Smith,Bridgeport,102.47,217.72,,,,Single-ply,SBD,M
Div 2,109.77,DQ,Robert Wilcox,Princeton,102.74,120.2,,,,Single-ply,SBD,M
Div 2,109.77,DQ,David Grace,Sanger,106.68,,,,,Single-ply,SBD,M
Div 2,124.74,DQ,Barrett Davidson,Graham,110,,,,,Single-ply,SBD,M
Div 2,124.74,1,Matt Poursoltani,Pilot Point,110.63,235.87,185.97,204.12,625.96,Single-ply,SBD,M
Div 2,124.74,2,Colt Nelson,Sanger,117.48,240.4,136.08,238.14,614.62,Single-ply,SBD,M
Div 2,124.74,3,Tanner Pelham,Anna,123.51,238.14,147.42,229.06,614.62,Single-ply,SBD,M
Div 2,124.74,4,Nathan Paschal,Graham,120.25,249.48,147.42,208.65,605.55,Single-ply,SBD,M
Div 2,124.74,5,Justin Perez,Farmersville,124.74,229.06,133.81,219.99,582.87,Single-ply,SBD,M
Div 2,124.74,6,Jonathon Flores,Frisco Lone Star,114.17,204.12,156.49,183.7,544.31,Single-ply,SBD,M
Div 2,124.74,7,Sebastian Esquivel,Bridgeport,117.44,188.24,147.42,188.24,523.9,Single-ply,SBD,M
Div 2,124.74,DQ,Richard Johnson,Carrollton Ranchview,110.22,222.26,,,,Single-ply,SBD,M
Div 2,124.74,DQ,Fritz Hull,Prosper,110.13,204.12,,,,Single-ply,SBD,M
Div 2,124.74,DQ,Richard Pickett,Princeton,111.04,,,,,Single-ply,SBD,M
Div 2,124.74,DQ,Jason Guinn,Nevada Community,117.48,,,,,Single-ply,SBD,M
Div 2,124.74+,1,Ray Cortez,Decatur,136.49,260.82,172.37,265.35,698.53,Single-ply,SBD,M
Div 2,124.74+,2,Joe Merino,Anna,138.35,283.5,145.15,229.06,657.71,Single-ply,SBD,M
Div 2,124.74+,3,Trevor Melugin,Prosper,134.49,265.35,167.83,219.99,653.17,Single-ply,SBD,M
Div 2,124.74+,4,Bradley Bendure,Bowie,127.01,231.33,120.2,195.04,546.58,Single-ply,SBD,M
Div 2,124.74+,5,Nick Ward,Iowa Park,145.78,226.8,104.33,204.12,535.24,Single-ply,SBD,M
Div 2,124.74+,6,Matthew Hawkins,Nevada Community,131.81,224.53,111.13,192.78,528.44,Single-ply,SBD,M
Div 2,124.74+,DQ,Cole Collier,Prosper,146.83,204.12,,,,Single-ply,SBD,M
Div 2,124.74+,DQ,Nathan Brown,Kennedale,129.09,226.8,113.4,,,Single-ply,SBD,M
Div 2,124.74+,DQ,Albert Torres,Castleberry,128.05,,,,,Single-ply,SBD,M
Div 2,124.74+,DQ,Tanner Kissling,Bonham,147.87,249.48,,,,Single-ply,SBD,M
