Name,WeightClassKg,Best3SquatKg,Best3BenchKg,Bench4Kg,Best3DeadliftKg,TotalKg,Event,Equipment,Division,Sex,Place
John Myers,75,182.5,150.5,,235.5,568,SBD,Single-ply,Masters 1,M,1
Danny Lee,110,220,147.5,,242.5,610,SBD,Single-ply,Masters 1,M,1
Peter Smith,125,300,175,,302.5,777.5,SBD,Single-ply,Masters 1,M,1
Victor Burt,125,240,120,,250,610,SBD,Single-ply,Masters 1,M,1
Jan Peterson,125+,240,135,,230,605,SBD,Single-ply,Masters 1,M,1
John Brailey,75,150,100,,180,430,SBD,Single-ply,Masters 2,M,1
Robert Hoilick,75,75,67.5,,110,252.5,SBD,Single-ply,Masters 2,M,2
Harry Hovasapian,82.5,170,128.5,,205,503.5,SBD,Single-ply,Masters 2,M,1
Ron Weston,82.5,175,102.5,,210,487.5,SBD,Single-ply,Masters 2,M,2
Maurie Craggs,82.5,180,95,,195,470,SBD,Single-ply,Masters 2,M,3
Trevor Cox,90,250,145,,270,665,SBD,Single-ply,Masters 2,M,1
Ken Mitchali,90,160,90,,170,420,SBD,Single-ply,Masters 2,M,2
Matti Tikka,100,230,150,,237.5,617.5,SBD,Single-ply,Masters 2,M,1
Ralph Atchison,100,190,145,,233,568,SBD,Single-ply,Masters 2,M,2
Greg Buckley,67.5,,122.5,,,122.5,B,Single-ply,Open,M,1
Fred Litchfield,67.5,,120.5,,,120.5,B,Single-ply,Open,M,2
Jason Permcott,67.5,,115,,,115,B,Single-ply,Open,M,3
Ron Gutermson,67.5,,102.5,,,102.5,B,Single-ply,Open,M,4
Franz Bartels,82.5,,125,,,125,B,Single-ply,Open,M,1
Nathan Flick,82.5,,,,,,B,Single-ply,Open,M,DQ
Mason Jardine,100,,202.5,205,,202.5,B,Single-ply,Open,M,1
Dean Cowan,125+,,190,,,190,B,Single-ply,Open,M,1
Sandra Brice,60,,72.5,,,72.5,B,Single-ply,Open,F,1
Gaudi Mea,52,125,55,,125,305,SBD,Single-ply,Open,M,1
Valentine Robby,60,127.5,72.5,,140,340,SBD,Single-ply,Open,M,1
Iwila Jacobs,60,125,70,,160,355,SBD,Single-ply,Open,M,2
Derrick Deduna,67.5,190,90,,180,460,SBD,Single-ply,Open,M,1
Karowa Kundi,82.5,215,117.5,,215,547.5,SBD,Single-ply,Open,M,1
Delgoga Doweda,82.5,190,110,,190,490,SBD,Single-ply,Open,M,2
Ario Enjer,90,225,140,,210,575,SBD,Single-ply,Open,M,1
Deki Degeago,100,260,120,,200,580,SBD,Single-ply,Open,M,1
Tawaki Kam,125+,235,145,,205,585,SBD,Single-ply,Open,M,1
Dika Toura,44,70,35,,80,185,SBD,Single-ply,Open,F,1
Daley Lohla,52,52.5,25,,60,137.5,SBD,Single-ply,Open,F,1
Daset Posi,67.5,100,40,,107.5,247.5,SBD,Single-ply,Open,F,1
Ray Hope,67.5,195,120,,237.5,552.5,SBD,Single-ply,Open,M,1
Nick Unsworth-Smith,75,210,160,,215,585,SBD,Single-ply,Open,M,1
Dave Costello,75,190,135,,240,565,SBD,Single-ply,Open,M,2
Benjamin Berry,75,190,100,,210,500,SBD,Single-ply,Open,M,3
Peter Love,75,140,95,,170,405,SBD,Single-ply,Open,M,4
Toby Cartisle,75,130,80,,175,385,SBD,Single-ply,Open,M,5
Andrew Lulham,82.5,215,140,,240,595,SBD,Single-ply,Open,M,1
Achilles Kelepouris,82.5,243,120,,232.5,595,SBD,Single-ply,Open,M,2
Harry Hovasapian,82.5,170,128.5,,205,503.5,SBD,Single-ply,Open,M,3
Cameron White,82.5,175,85,,215,475,SBD,Single-ply,Open,M,4
Colin Ivaher,82.5,175,97.5,,190,462.5,SBD,Single-ply,Open,M,5
Ken Chandler,90,255,142.5,,267.5,665,SBD,Single-ply,Open,M,1
Daniel O'Rourke,90,200,130,,225,555,SBD,Single-ply,Open,M,2
Pas Pataud,100,227.5,175,,240,642.5,SBD,Single-ply,Open,M,1
Angus Ross,100,210,145,,270,625,SBD,Single-ply,Open,M,2
Peter Smith,125,300,175,,302.5,777.5,SBD,Single-ply,Open,M,1
Mark Kochanek,60,155,90,,210,455,SBD,Single-ply,Open,M,1
Brad Peters,60,170,90,,192.5,452.5,SBD,Single-ply,Open,M,2
Ray Hope,67.5,195,120,,237.5,552.5,SBD,Single-ply,Open,M,1
Allan Jones,67.5,180,102.5,,180,462.5,SBD,Single-ply,Open,M,2
Nick Unsworth-Smith,75,210,150,,215,575,SBD,Single-ply,Open,M,1
Murray Muscat,75,220,110,,210,540,SBD,Single-ply,Open,M,2
Benjamin Berry,75,190,100,,210,500,SBD,Single-ply,Open,M,3
Szabolcs Horvath,75,165,100,,200,465,SBD,Single-ply,Open,M,4
Jango Jeremain,75,180,90,,180,450,SBD,Single-ply,Open,M,5
Peter Love,75,140,95,,170,405,SBD,Single-ply,Open,M,6
Toby Carlisle,75,130,80,,175,385,SBD,Single-ply,Open,M,7
Andrew Lulham,82.5,215,140,,240,595,SBD,Single-ply,Open,M,1
Franz Bartels,82.5,200,125,,260,585,SBD,Single-ply,Open,M,2
Greg Janson,82.5,215,125,,220,560,SBD,Single-ply,Open,M,3
Colin Ivaher,82.5,175,97.5,,190,462.5,SBD,Single-ply,Open,M,4
Angus Ross,100,210,145,,270,625,SBD,Single-ply,Open,M,1
Peter Tailford,100,225,145,,245,615,SBD,Single-ply,Open,M,2
Mason Jardine,100,,,,,,SBD,Single-ply,Open,M,DQ
Andrew Logan,110,300,170,,305,775,SBD,Single-ply,Open,M,1
Trevor Ludermar,110,300,170,,280,750,SBD,Single-ply,Open,M,2
Peter Smith,125,300,175,,302.5,777.5,SBD,Single-ply,Open,M,1
Graham Thompson,125,240,120,,250,610,SBD,Single-ply,Open,M,2
Dean Cowan,125+,270,190,,315,775,SBD,Single-ply,Open,M,1
Donna Clifford,75,150,85,,170,405,SBD,Single-ply,Open,F,1
Sara-Maree Francis,75,112.5,60,,120,292.5,SBD,Single-ply,Open,F,2
