Division,WeightClassKg,Place,Name,Team,BodyweightKg,Best3SquatKg,Best3BenchKg,Best3DeadliftKg,TotalKg,Equipment,Event,Sex
Boys,51.71,1,Angel Gomez,Comal Canyon,51.71,90.72,65.77,115.67,272.16,Single-ply,SBD,M
Boys,51.71,2,Mikael Pavia,San Marcos,49.53,95.25,63.5,97.52,256.28,Single-ply,SBD,M
Boys,51.71,3,Forrest Cormier,Dripping Springs,48.81,90.72,54.43,106.59,251.74,Single-ply,SBD,M
Boys,51.71,4,Jeremy Trinidad,San Marcos,51.07,97.52,49.9,102.06,249.48,Single-ply,SBD,M
Boys,51.71,5,Allen Wimberly,Lockhart,48.81,61.23,,,61.23,Single-ply,S,M
Boys,59.87,1,Mario Leos,Seguin,55.97,133.81,95.25,183.7,412.77,Single-ply,SBD,M
Boys,55.79,2,Justin Arteaga,Comal Canyon,54.98,120.2,70.31,136.08,326.59,Single-ply,SBD,M
Boys,55.79,DQ,Tyler Sevcik,College Station A&M Cons,52.25,,,,,Single-ply,SBD,M
Boys,55.79,4,Edward Estrada,Gonzales,55.07,106.59,65.77,108.86,281.23,Single-ply,SBD,M
Boys,55.79,5,Oliver Oliveras,Lockhart,54.07,79.38,49.9,88.45,217.72,Single-ply,SBD,M
Boys,55.79,DQ,Julio Ramirez,Comal Canyon,54.52,,,,,Single-ply,SBD,M
Boys,59.87,DQ,Kevin Macke,Dripping Springs,55.88,,,,,Single-ply,SBD,M
Boys,55.79,DQ,Josh Fantuauzzi,Buda Hays,55.79,,,,,Single-ply,SBD,M
Boys,67.13,1,Zerrick Merchant,College Station A&M Cons,60.06,172.37,108.86,192.78,474,Single-ply,SBD,M
Boys,59.87,2,Chris Jackson,Lockhart,59.87,147.42,83.91,156.49,387.82,Single-ply,SBD,M
Boys,59.87,DQ,Matt Maldonado,Del Valle,59.69,,,,,Single-ply,SBD,M
Boys,67.13,4,Eli Arzola,Seguin,59.96,138.35,83.91,138.35,360.61,Single-ply,SBD,M
Boys,59.87,5,Ty Smith,Dripping Springs,59.78,124.74,72.57,156.49,353.8,Single-ply,SBD,M
Boys,59.87,6,Gabe Casares,Gonzales,59.78,120.2,77.11,138.35,335.66,Single-ply,SBD,M
Boys,59.87,7,Bernardo Navidad,Del Valle,58.42,111.13,77.11,145.15,333.39,Single-ply,SBD,M
Boys,59.87,8,Alex Saintlouis,Killeen Shoemaker,57.88,136.08,,,136.08,Single-ply,S,M
Boys,59.87,DQ,Chase Allen,San Marcos,56.7,,,,,Single-ply,S,M
Boys,74.84,1,Riley Martinez,College Station A&M Cons,67.31,192.78,102.06,176.9,471.74,Single-ply,SBD,M
Boys,74.84,2,Austin Stephen,College Station A&M Cons,67.31,181.44,106.59,170.1,458.13,Single-ply,SBD,M
Boys,67.13,3,Taylor Hough,Buda Hays,,156.49,102.06,161.03,419.57,Single-ply,SBD,M
Boys,67.13,4,Daniel Zamora,Seguin,60.96,154.22,90.72,172.37,417.3,Single-ply,SBD,M
Boys,67.13,5,Colin Gillis,Dripping Springs,66.22,158.76,92.99,165.56,417.3,Single-ply,SBD,M
Boys,67.13,6,Mitchell Classen,Buda Hays,61.51,149.69,83.91,161.03,394.63,Single-ply,SBD,M
Boys,74.84,7,Axel Santiago,Del Valle,67.31,131.54,88.45,138.35,358.34,Single-ply,SBD,M
Boys,67.13,8,Chris Ruff,Geronimo Navarro,62.87,127.01,83.91,142.88,353.8,Single-ply,SBD,M
Boys,67.13,9,George Olivio,Gonzales,64.23,124.74,92.99,129.27,347,Single-ply,SBD,M
Boys,67.13,10,Joel Nieto,San Marcos,64.86,122.47,77.11,147.42,347,Single-ply,SBD,M
Boys,67.13,11,Bailey Bartsch,Lockhart,67.13,102.06,83.91,115.67,301.64,Single-ply,SBD,M
Boys,67.13,12,Robert Hernandez,San Marcos,60.6,92.99,65.77,120.2,278.96,Single-ply,SBD,M
Boys,67.13,13,Matt Salter,San Marcos,64.5,49.9,74.84,79.38,204.12,Single-ply,SBD,M
Boys,67.13,14,Michael Mcleod,San Marcos,63.32,52.16,65.77,81.65,199.58,Single-ply,SBD,M
Boys,67.13,15,Darius Bender,Del Valle,63.96,111.13,83.91,,195.04,Single-ply,SB,M
Boys,67.13,16,Abdo Zeinoun,Del Valle,64.41,129.27,,,129.27,Single-ply,S,M
Boys,67.13,17,James Castillo,Buda Hays,61.14,113.4,,,113.4,Single-ply,S,M
Boys,67.13,18,Henry Palacios,Dripping Springs,61.23,113.4,,,113.4,Single-ply,S,M
Boys,67.13,DQ,Felix Morales,Killeen Shoemaker,65.23,,,,,Single-ply,S,M
Boys,67.13,DQ,Dominic Mathews,Killeen Shoemaker,61.05,,,,,Single-ply,S,M
Boys,82.1,1,Cedrick McCan,College Station A&M Cons,75.02,217.72,108.86,231.33,557.92,Single-ply,SBD,M
Boys,74.84,2,David Wren,Dripping Springs,74.66,174.63,99.79,206.38,480.81,Single-ply,SBD,M
Boys,74.84,3,Bobby Hennigan,College Station A&M Cons,68.4,163.29,117.93,195.04,476.27,Single-ply,SBD,M
Boys,74.84,4,Edward Suarez,San Marcos,68.04,176.9,102.06,183.7,462.66,Single-ply,SBD,M
Boys,74.84,5,Daniel Nieto,San Marcos,68.86,158.76,113.4,181.44,453.59,Single-ply,SBD,M
Boys,74.84,6,Daniel Rivera,Gonzales,74.03,174.63,83.91,170.1,428.64,Single-ply,SBD,M
Boys,74.84,7,Andre McShan,Killeen Shoemaker,71.67,145.15,102.06,163.29,410.5,Single-ply,SBD,M
Boys,74.84,8,Jacob Rodriguez,Geronimo Navarro,70.49,142.88,92.99,158.76,394.63,Single-ply,SBD,M
Boys,74.84,9,Zach Camden,San Marcos,69.94,124.74,97.52,161.03,383.29,Single-ply,SBD,M
Boys,74.84,10,Jay Leal,Geronimo Navarro,70.31,145.15,81.65,147.42,374.21,Single-ply,SBD,M
Boys,74.84,11,Aristotle Serna,San Marcos,69.13,124.74,79.38,156.49,360.61,Single-ply,SBD,M
Boys,74.84,12,Mike Castillo,Geronimo Navarro,72.57,124.74,90.72,138.35,353.8,Single-ply,SBD,M
Boys,82.1,13,Tyler Altwein,Comal Canyon,75.02,190.51,,,190.51,Single-ply,S,M
Boys,82.1,14,Otis Hudson,Killeen Shoemaker,75.02,138.35,,,138.35,Single-ply,S,M
Boys,74.84,15,Johnathan Burleson,San Marcos,74.75,136.08,,,136.08,Single-ply,S,M
Boys,74.84,DQ,Holton Dickerson,Buda Hays,73.75,,,,,Single-ply,S,M
Boys,74.84,DQ,Hayden Eskew,Buda Hays,74.3,,,,,Single-ply,S,M
Boys,82.1,1,John Monreal,Del Valle,79.74,249.48,136.08,215.46,601.01,Single-ply,SBD,M
Boys,82.1,DQ,Omar Pereyra,Dripping Springs,81.56,,,,,Single-ply,SBD,M
Boys,82.1,3,Hunter Noack,Gonzales,81.56,183.7,102.06,204.12,489.88,Single-ply,SBD,M
Boys,82.1,4,Adrian Molina,Gonzales,80.92,179.17,106.59,181.44,467.2,Single-ply,SBD,M
Boys,82.1,5,Javier Garcia #4,Seguin,80.65,172.37,97.52,183.7,453.59,Single-ply,SBD,M
Boys,82.1,6,Sean Hancock,Geronimo Navarro,78.47,142.88,120.2,154.22,417.3,Single-ply,SBD,M
Boys,82.1,7,Jacob Flores,San Marcos,79.65,156.49,83.91,136.08,376.48,Single-ply,SBD,M
Boys,82.1,8,Justin Strainer,Comal Canyon,80.56,147.42,83.91,124.74,356.07,Single-ply,SBD,M
Boys,82.1,9,Marcos Johnson,Lockhart,75.66,92.99,65.77,131.54,290.3,Single-ply,SBD,M
Boys,82.1,10,David Burns,Dripping Springs,77.29,163.29,,,163.29,Single-ply,S,M
Boys,82.1,11,Kevin Moore,Del Valle,76.11,158.76,,,158.76,Single-ply,S,M
Boys,82.1,12,Zacharias Martinez,Lockhart,76.2,149.69,,,149.69,Single-ply,S,M
Boys,82.1,13,Tanner Brown,Lockhart,81.01,149.69,,,149.69,Single-ply,S,M
Boys,82.1,14,Kenneth Romo,San Marcos,80.01,142.88,,,142.88,Single-ply,S,M
Boys,89.81,15,Kristopher Ramirez,Lockhart,82.33,129.27,,,129.27,Single-ply,S,M
Boys,82.1,DQ,Kelly McBride,Del Valle,76.57,,,,,Single-ply,S,M
Boys,89.81,DQ,Chris Ceazer,College Station A&M Cons,85.91,,,,,Single-ply,SBD,M
Boys,89.81,2,Landon Lock,Gonzales,88.81,251.74,124.74,244.94,621.42,Single-ply,SBD,M
Boys,89.81,DQ,DJ Levias,College Station A&M Cons,82.83,,,,,Single-ply,SBD,M
Boys,89.81,DQ,Joe Waithaka,College Station A&M Cons,83.37,,,,,Single-ply,SBD,M
Boys,89.81,5,Miles Dixon,Seguin,88,195.04,106.59,240.4,542.04,Single-ply,SBD,M
Boys,89.81,6,Marcell Terry,Killeen Shoemaker,84.37,183.7,127.01,158.76,469.47,Single-ply,SBD,M
Boys,89.81,7,Shane DeLeon,Seguin,82.92,145.15,106.59,181.44,433.18,Single-ply,SBD,M
Boys,89.81,8,Tyler James,Buda Hays,87.09,147.42,104.33,181.44,433.18,Single-ply,SBD,M
Boys,89.81,9,Victor Martinez,Buda Hays,88.9,147.42,106.59,149.69,403.7,Single-ply,SBD,M
Boys,89.81,10,Tyler Morgan,Gonzales,85.64,136.08,97.52,158.76,392.36,Single-ply,SBD,M
Boys,89.81,11,JT Miller,Gonzales,88.54,138.35,77.11,174.63,390.09,Single-ply,SBD,M
Boys,89.81,12,Austin Isaac,Geronimo Navarro,88.54,149.69,79.38,120.2,349.27,Single-ply,SBD,M
Boys,89.81,13,Jt Holmes,San Marcos,89.36,117.93,97.52,124.74,340.19,Single-ply,SBD,M
Boys,89.81,14,Joseph Bell,Lockhart,83.91,179.17,,,179.17,Single-ply,S,M
Boys,89.81,DQ,Bradley Slate,Lockhart,86.91,,,,,Single-ply,S,M
Boys,99.79,1,Clinton Banks,College Station A&M Cons,98.52,231.33,129.27,229.06,589.67,Single-ply,SBD,M
Boys,99.79,2,Pj Hall,Seguin,98.88,210.92,124.74,217.72,553.38,Single-ply,SBD,M
Boys,99.79,3,Jesse Hunt,Dripping Springs,93.26,226.8,113.4,204.12,544.31,Single-ply,SBD,M
Boys,99.79,4,Chris Carpenter,Seguin,92.53,201.85,127.01,195.04,523.9,Single-ply,SBD,M
Boys,99.79,5,Kyle Williams,Buda Hays,99.11,192.78,115.67,206.38,514.83,Single-ply,SBD,M
Boys,99.79,6,Deaundre Turner,Lockhart,99.34,183.7,108.86,208.65,501.22,Single-ply,SBD,M
Boys,99.79,7,Joshua Keith,San Marcos,93.17,172.37,127.01,190.51,489.88,Single-ply,SBD,M
Boys,99.79,8,Leron Hutto,San Marcos,99.06,181.44,111.13,190.51,483.08,Single-ply,SBD,M
Boys,99.79,9,Ronnie Carter,Geronimo Navarro,92.17,163.29,115.67,172.37,451.32,Single-ply,SBD,M
Boys,99.79,10,Cody Villarreal,San Marcos,95.8,174.63,102.06,174.63,451.32,Single-ply,SBD,M
Boys,99.79,11,Joshua King,Killeen Shoemaker,95.98,172.37,90.72,179.17,442.25,Single-ply,SBD,M
Boys,99.79,12,Coy Condel,Gonzales,97.89,158.76,83.91,174.63,417.3,Single-ply,SBD,M
Boys,99.79,DQ,Jordan Salinas,Killeen Shoemaker,98.61,,,,,Single-ply,SBD,M
Boys,99.79,DQ,Steven Kittle,Dripping Springs,94.98,,,,,Single-ply,SBD,M
Boys,124.74,1,Caden Walker,College Station A&M Cons,109.95,235.87,176.9,206.38,619.15,Single-ply,SBD,M
Boys,109.77,2,Nathan Schneider,Seguin,106.05,226.8,127.01,226.8,580.6,Single-ply,SBD,M
Boys,109.77,3,Wyatt Smith,College Station A&M Cons,108.5,235.87,136.08,201.85,573.79,Single-ply,SBD,M
Boys,109.77,4,Mike Nap,Dripping Springs,103.6,190.51,117.93,206.38,514.83,Single-ply,SBD,M
Boys,109.77,5,Jonathan Rivera,San Marcos,105.96,201.85,124.74,188.24,514.83,Single-ply,SBD,M
Boys,109.77,6,Junior Garcia,Lockhart,102.6,188.24,102.06,185.97,476.27,Single-ply,SBD,M
Boys,109.77,7,Rivonte Chizer,Seguin,102.78,176.9,111.13,172.37,460.4,Single-ply,SBD,M
Boys,109.77,8,Lupe Cabrera,Gonzales,108.41,158.76,120.2,181.44,460.4,Single-ply,SBD,M
Boys,109.77,9,Cesar Juarez,Geronimo Navarro,106.05,172.37,92.99,172.37,437.72,Single-ply,SBD,M
Boys,109.77,10,David Velasquez,Geronimo Navarro,108.23,176.9,106.59,154.22,437.72,Single-ply,SBD,M
Boys,124.74,DQ,Elliot Lopez,Comal Canyon,109.95,,,,,Single-ply,SBD,M
Boys,124.74,DQ,Jj Bynum,College Station A&M Cons,121.93,,,,,Single-ply,SBD,M
Boys,124.74,2,Austin Reyes,Buda Hays,111.13,226.8,133.81,215.46,576.06,Single-ply,SBD,M
Boys,124.74,3,Ray Sedwick,Lockhart,117.3,199.58,113.4,210.92,523.9,Single-ply,SBD,M
Boys,124.74,4,Roman Esparza,Geronimo Navarro,113.58,195.04,102.06,195.04,492.15,Single-ply,SBD,M
Boys,124.74,5,Brian Dolezal,Gonzales,114.12,170.1,102.06,167.83,439.98,Single-ply,SBD,M
Boys,124.74,6,Adrian Guerrero,Comal Canyon,122.2,145.15,99.79,136.08,381.02,Single-ply,SBD,M
Boys,124.74,7,Pesina Vincent,Buda Hays,116.75,208.65,113.4,,322.05,Single-ply,SB,M
Boys,124.74,8,Jesse Benevavides,San Marcos,117.03,92.99,88.45,136.08,317.51,Single-ply,SBD,M
Boys,124.74,9,Travis Timmerman,Seguin,124.01,183.7,,,183.7,Single-ply,S,M
Boys,124.74+,10,Tyrone Newson,Killeen Shoemaker,124.92,156.49,,,156.49,Single-ply,S,M
Boys,124.74+,1,Ryne Lehman,Lockhart,133.81,197.31,142.88,204.12,544.31,Single-ply,SBD,M
Boys,124.74+,2,Dominick Chirco,Killeen Shoemaker,125.83,210.92,106.59,199.58,517.1,Single-ply,SBD,M
Boys,124.74+,3,Ryan Meza,Dripping Springs,140.52,190.51,115.67,181.44,487.61,Single-ply,SBD,M
Boys,124.74+,4,Terrance Valentine,Killeen Shoemaker,137.62,156.49,120.2,174.63,451.32,Single-ply,SBD,M
Boys,124.74+,5,Richard Theile,Gonzales,138.35,165.56,95.25,158.76,419.57,Single-ply,SBD,M
Boys,,NS,Ruben Hernandez #3,Geronimo Navarro,,,,,,Single-ply,SBD,M
